@startuml

package "Installation"{
	class InstallationRessource{
		dateInstallation : Date
	}

	class InstallationApplication{
		note : int
		commentaire : string
		dateInstallation : Date
	}

	Note "commentaire : taille max = 500" as N1

	InstallationRessource "0..*" -- "1..1" InstallationApplication : necessite >
	InstallationApplication .. N1
}

InstallationRessource "0..*" -- "0..5" Terminal : est installe sur >
InstallationApplication "0..*" -- "0..5" Terminal : est installe sur >
InstallationRessource "0..1" -- "1..1" AcquisitionRessource : concerne >
InstallationRessource "0..1" -- "1..1" AcquisitionApplication : concerne >

@enduml