@startuml  

package "client"{ 
	class Client{
 		numeroClient : int {key}
 		username : string
	}

	class UserInformation{
		nom : string
		prenom : string
		email : string
		dateInscription : Date
	}

	class Terminal{
 		numeroSerie : int {key}
 		nomTerminal : string
	}
	
	Client "1..1" -- "0..*" Terminal : possede >
	Client "1..1" *-- "1..1" UserInformation: est constitue >
}


InstallationApplication "0..*" -- "0..5" Terminal : est installe >
InstallationRessource "0..*" -- "0..5" Terminal : est installe >
Terminal "0..*" -- "1..1" Modele : est de modele >
Client "1..1" -- "0..*" Acquisition : acquiert >
Client "1..1" -- "0..*" Achat : recoit >

@enduml